GUARANTEE
--------------------- CONFLICT-ANALYSIS SOLUTION ---------------------
conflict-analysis (36.69,90.1)
original (37.53,90.1)

J : 7
M : 6
MJ : 6
P : 7
PJ : 7
PMJ : 4
PM : 8



SAFETY
--------------------- CONFLICT-ANALYSIS SOLUTION ---------------------
conflict-analysis (34.86,90.72)
original (35.67,90.72)

J : 7
M : 7
MJ : 8
P : 6
PJ : 6
PMJ : 5
PM : 7



OBLIGATION
--------------------- CONFLICT-ANALYSIS SOLUTION ---------------------
conflict-analysis (31.48,92.59)
original (32.01,92.59)

J : 4
M : 6
MJ : 6
P : 6
PJ : 6
PMJ : 5
PM : 7


RECURRENCE
--------------------- CONFLICT-ANALYSIS SOLUTION ---------------------
conflict-analysis (25.62,88.54)
original (26.09,88.53)

J : 8
M : 8
MJ : 6
P : 7
PJ : 6
PMJ : 5
PM : 5


PERSISTENCE
--------------------- CONFLICT-ANALYSIS SOLUTION ---------------------
conflict-analysis (34.58,91.19)
original (34.58,91.19)

J : 6
M : 6
MJ : 6
P : 6
PJ : 6
PMJ : 6
PM : 6


REACTIVITY
--------------------- CONFLICT-ANALYSIS SOLUTION ---------------------
conflict-analysis (23.97,90.51)
original (24.37,90.51)

J : 8
M : 8
MJ : 7
P : 6
PJ : 6
PMJ : 5
PM : 6






























